﻿[
	{
		"_id": "co-50",
		"_parentId": "course",
		"_type": "page",
		"_classes": "zh_cn",
		"title": "はじめに",
		"displayTitle": "はじめに",
		"pageBody": " ",
		"body": "Instagram Storiesとそのしくみを説明します。",
		"_graphic": {
			"src": "course/en/images/contentObjects/ashleymilardo_1.png",
			"alt": "概要"
		},
		"linkText": "見る",
		"durationLabel": "所要時間: ",
		"duration": "4分",
		"_pageLevelProgress": {
			"_isEnabled": true
		}
	},
    {
		"_id": "co-100",
		"_parentId": "course",
		"_type": "page",
		"_classes": "zh_cn",
		"title": "Instagram Storiesをオーガニックに利用しているビジネスの事例",
		"displayTitle": "Instagram Storiesをオーガニックに利用しているビジネスの事例",
		"pageBody": " ",
		"body": "Instagram Storiesを使ったブランドストーリーテリングの成功事例をご覧ください。",
		"_graphic": {
			"src": "course/en/images/contentObjects/daise122_1.png",
			"alt": "概要"
		},
		"linkText": "見る",
		"durationLabel": "所要時間: ",
		"duration": "4分",
		"_pageLevelProgress": {
			"_isEnabled": true
		}
	},
    {
		"_id": "co-150",
		"_parentId": "course",
		"_type": "page",
		"_classes": "zh_cn",
		"title": "Instagram Storiesの広告",
		"displayTitle": "Instagram Storiesの広告",
		"pageBody": " ",
		"body": "Instagram Storiesの広告のしくみと使用事例をご紹介します。",
		"_graphic": {
			"src": "course/en/images/contentObjects/daise122_2.png",
			"alt": "概要"
		},
		"linkText": "見る",
		"durationLabel": "所要時間: ",
		"duration": "4分",
		"_pageLevelProgress": {
			"_isEnabled": true
		}
	},
    {
		"_id": "co-200",
		"_parentId": "course",
		"_type": "page",
		"_classes": "zh_cn",
		"title": "Instagram Storiesでの広告作成",
		"displayTitle": "Instagram Storiesでの広告作成",
		"pageBody": " ",
		"body": "Instagram Storiesでの広告作成を、順を追って説明します。",
		"_graphic": {
			"src": "course/en/images/contentObjects/ashleymilardo_2.png",
			"alt": "概要"
		},
		"linkText": "見る",
		"durationLabel": "所要時間: ",
		"duration": "4分",
		"_pageLevelProgress": {
			"_isEnabled": true
		}
	},
    {
		"_id": "co-250",
		"_parentId": "course",
		"_type": "page",
		"_classes": "zh_cn",
		"title": "ストーリーズに関するインサイト",
		"displayTitle": "ストーリーズに関するインサイト",
		"pageBody": " ",
		"body": "作成したストーリーズについて得られるインサイトの内容と、アクセス方法をご案内します。",
		"_graphic": {
			"src": "course/en/images/contentObjects/ashleymilardo_3.png",
			"alt": "概要"
		},
		"linkText": "見る",
		"durationLabel": "所要時間: ",
		"duration": "4分",
		"_pageLevelProgress": {
			"_isEnabled": true
		}
	}
    
]
